…
4.6 Using the calculate functions

Use the db_comptue_raster() function to get the underlying results that feed the plot

departure <- flights %>%
  db_compute_raster(deptime, arrtime)

departure

## # A tibble: 3,362 x 3
##    deptime arrtime  `n()`
##      <dbl>   <dbl>  <dbl>
##  1       0       0 136345
##  2       0      24    126
##  3       0      48    249
##  4       0      96    817
##  5       0     120    954
##  6       0     144    394
##  7       0     192    290
##  8       0     216    416
##  9       0     240    302
## 10       0     288    112
## # ... with 3,352 more rows
…
