…
Test the function

head(sample_segment(3), 100)

## # A tibble: 100 x 31
##     year month dayofmonth dayofweek deptime crsdeptime arrtime crsarrtime
##    <dbl> <dbl>      <dbl>     <dbl>   <dbl>      <dbl>   <dbl>      <dbl>
##  1  2008  3.00       3.00      1.00    1334       1325  1409       1410  
##  2  2008  3.00       3.00      1.00    1151       1150  1237       1300  
##  3  2008  3.00       3.00      1.00    1646       1645  1807       1825  
##  4  2008  3.00       3.00      1.00     852        855  1004       1010  
##  5  2008  3.00       4.00      2.00    1010       1000  1158       1155  
##  6  2008  3.00       4.00      2.00    1402       1400  1642       1655  
##  7  2008  3.00       4.00      2.00    1807       1805  1959       2005  
##  8  2008  3.00       4.00      2.00    2129       2135    39.0       55.0
##  9  2008  3.00       4.00      2.00    1306       1305  1358       1410  
## 10  2008  3.00       4.00      2.00    1913       1850  2026       2015  
## # ... with 90 more rows, and 23 more variables: uniquecarrier <chr>,
## #   flightnum <dbl>, tailnum <chr>, actualelapsedtime <dbl>,
## #   crselapsedtime <dbl>, airtime <dbl>, arrdelay <dbl>, depdelay <dbl>,
## #   origin <chr>, dest <chr>, distance <dbl>, taxiin <dbl>, taxiout <dbl>,
## #   cancelled <dbl>, cancellationcode <chr>, diverted <dbl>,
## #   carrierdelay <dbl>, weatherdelay <dbl>, nasdelay <dbl>,
## #   securitydelay <dbl>, lateaircraftdelay <dbl>, flightid <int>, row <S3:
## #   integer64>
…
