4 Data Visualizations | _main.utf8.md
…
4.10 Using the calculate functions

Use the db_compute_raster() function to get the underlying results that feed the plot

departure <- flights %>%
  db_compute_raster(deptime, arrtime)

departure

## # A tibble: 3,602 x 3
##    deptime arrtime  `n()`
##      <dbl>   <dbl>  <dbl>
##  1     NA      NA  136246
##  2   1057.   1848.     60
##  3    625.    841.  12271
##  4    697.   1392.    608
##  5    817.   1105.  13782
##  6    721.   1248.    543
##  7    649.   1488.    552
##  8   1512.   2256.     59
##  9    601.    649.   5476
## 10   1680.   2112.    309
## # … with 3,592 more rows
…
