…
4.9 Using the calculate functions

Use the db_comptue_raster() function to get the underlying results that feed the plot

departure <- flights %>%
  db_compute_raster(deptime, arrtime)

departure

## # A tibble: 3,362 x 3
##    deptime arrtime     `n()`
##      <dbl>   <dbl>     <dbl>
##  1       0       0 136345   
##  2    1440    1584  11899   
##  3    1440    1704  12455   
##  4    1248    2208     20.0 
##  5     744    2112      1.00
##  6     840    1344   1578   
##  7    2112     936     34.0 
##  8     936    2208      1.00
##  9     648     816  17227   
## 10     336     528     42.0 
## # ... with 3,352 more rows
…
