5 Modeling | _main.utf8.md
…
  db_month <- db_month %>%
    mutate(row = row_number())
  
  sampling <- sample(1:rows, size)
  
  db_month %>%
    filter(row %in% sampling) %>%
    collect()
}

Test the function

head(sample_segment(3), 100)

## # A tibble: 100 x 32
##    flightid  year month dayofmonth dayofweek deptime crsdeptime arrtime
##       <int> <dbl> <dbl>      <dbl>     <dbl>   <dbl>      <dbl>   <dbl>
##  1  1177383  2008     3          3         1     720        720     912
##  2  1178149  2008     3          4         2     651        650     807
##  3  1178829  2008     3          4         2     856        900     952
##  4  1179167  2008     3          4         2     759        800     807
##  5  1179369  2008     3          4         2     709        710     910
##  6  1183494  2008     3          5         3    2054       2100      11
##  7  1184306  2008     3          5         3     731        735     932
##  8  1185885  2008     3          6         4    1000       1000    1050
##  9  1188572  2008     3          7         5    1641       1620    1757
## 10  1191340  2008     3          7         5     833        830     956
## # … with 90 more rows, and 24 more variables: crsarrtime <dbl>,
## #   uniquecarrier <chr>, flightnum <dbl>, tailnum <chr>,
## #   actualelapsedtime <dbl>, crselapsedtime <dbl>, airtime <dbl>,
## #   arrdelay <dbl>, depdelay <dbl>, origin <chr>, dest <chr>,
## #   distance <dbl>, taxiin <dbl>, taxiout <dbl>, cancelled <dbl>,
## #   cancellationcode <chr>, diverted <dbl>, carrierdelay <dbl>,
## #   weatherdelay <dbl>, nasdelay <dbl>, securitydelay <dbl>,
## #   lateaircraftdelay <dbl>, score <int>, row <S3: integer64>
…
